{
    "memory": "256",
    "networkMode": "awsvpc",
    "cpu": "1000",
    "family": "all4track-staging-cli",
    "executionRoleArn": "arn:aws:iam::399311659789:role/all4track-staging-cluster-ECSTaskExecutionRole-6ESODT26Y3DW",
    "containerDefinitions": [
        {
            "memory": 256,
            "environment": [
                {
                    "name": "APP_KEY",
                    "value": "base64:2dTB4pwbSWVxUOJy2L5Z4PtiM/9YYXkNRmVdKapLkI4="
                },
                {
                    "name": "APP_DEBUG",
                    "value": "false"
                },
				{
                    "name": "APP_ENV",
                    "value": "staging"
                },
				{
                    "name": "APP_URL",
                    "value": "https://api.beta-all4track.de"
                },
				{
                    "name": "WEB_URL",
                    "value": "https://www.beta-all4track.de"
                },
				{
                    "name": "SCOUT_DRIVER",
                    "value": "null"
                },
				{
                    "name": "QUEUE_CONNECTION",
                    "value": "redis"
                },
				{
                    "name": "SESSION_DRIVER",
                    "value": "database"
                },
{
                    "name": "CACHE_DRIVER",
                    "value": "redis"
                },
{
                    "name": "MAIL_HOST",
                    "value": "email-smtp.eu-central-1.amazonaws.com"
                },
{
                    "name": "MAIL_PORT",
                    "value": "587"
                },
                {
                    "name": "MAIL_ENCRYPTION",
                    "value": "ssl"
                },
                {
                    "name": "MAIL_USERNAME",
                    "value": "AKIAVZ6GUMMG43IKZFHT"
                },
                {
                    "name": "DB_HOST",
                    "value": "all4track-db-staging.cluster-cvf9b5f4g572.eu-central-1.rds.amazonaws.com"
                },
				{
                    "name": "DB_PORT",
                    "value": "3306"
                },
				{
                    "name": "DB_DATABASE",
                    "value": "all4track"
                },
				{
                    "name": "DB_USERNAME",
                    "value": "all4trackadmin"
                },
                {
                    "name": "REDIS_HOST",
                    "value": "all4track-redis-cluster-staging.qrmmpd.ng.0001.euc1.cache.amazonaws.com"
                },		
                {
                    "name": "REDIS_PORT",
                    "value": "6379"
                },		
                {
                    "name": "AWS_DEFAULT_REGION",
                    "value": "eu-central-1"
                },		
                {
                    "name": "STRIPE_KEY",
                    "value": "pk_test_2HAszaqvtqWlZ55MolmTPwJ0"
                }	
            ],
            "secrets": [
                {
                    "name": "STRIPE_SECRET",
                    "valueFrom": "arn:aws:secretsmanager:eu-central-1:399311659789:secret:all4track/staging/STRIPE_SECRET-UTwwEq:STRIPE_SECRET::"
                },
                {
                    "name": "MAIL_PASSWORD",
                    "valueFrom": "arn:aws:secretsmanager:eu-central-1:399311659789:secret:all4track/staging/MAIL_PASSWORD-2t28iH:MAIL_PASSWORD::"
                },
                {
                    "name": "DB_PASSWORD",
                    "valueFrom": "arn:aws:secretsmanager:eu-central-1:399311659789:secret:all4track/staging/DB_PASSWORD-vrA2Kp:DB_PASSWORD::"
                },
                {
                    "name": "REDIS_PASSWORD",
                    "valueFrom": "arn:aws:secretsmanager:eu-central-1:399311659789:secret:all4track/staging/REDIS_PASSWORD-S57Fbf:REDIS_PASSWORD::"
                },
                {
                    "name": "AWS_BUCKET",
                    "valueFrom": "arn:aws:secretsmanager:eu-central-1:399311659789:secret:all4track/staging/AWS_BUCKET-rM5hi4:AWS_BUCKET::"
                },
                {
                    "name": "AWS_ACCESS_KEY_ID",
                    "valueFrom": "arn:aws:secretsmanager:eu-central-1:399311659789:secret:all4track/staging/AWS_ACCESS_KEY_ID-2Hszxs:AWS_ACCESS_KEY_ID::"
                },
                {
                    "name": "AWS_SECRET_ACCESS_KEY",
                    "valueFrom": "arn:aws:secretsmanager:eu-central-1:399311659789:secret:all4track/staging/AWS_SECRET_ACCESS_KEY-cNoJ7j:AWS_SECRET_ACCESS_KEY::"
                },
                {
                    "name": "JWT_SECRET",
                    "valueFrom": "arn:aws:secretsmanager:eu-central-1:399311659789:secret:all4track/staging/JWT_SECRET-2IAeus:JWT_SECRET::"
                }
            ],
            "portMappings": [
                {
                    "hostPort": 80,
                    "containerPort": 80,
                    "protocol": "tcp"
                }
            ],
            "essential": true,
            "name": "all4track-staging-cli",
            "image": "399311659789.dkr.ecr.eu-central-1.amazonaws.com/all4track-cli:staging",
            "logConfiguration": {
                "logDriver": "awslogs",
                "options": {
                    "awslogs-group": "all4track-staging-cli",
                    "awslogs-region": "eu-central-1",
                    "awslogs-stream-prefix": "all4track-staging-cli"
                }
            }
        }
    ]
}
